exercise.R
…
dft[, c("abc", "xyz")]

## # A tibble: 1 x 2
##     abc xyz  
##   <dbl> <chr>
## 1  1.00 a

#returns the same thing but xyz is a factor in the data frame and a char in the tibble

#3
tibble_mtcars <- as.tibble(mtcars)
var <- 'mpg'
tibble_mtcars[var]

## # A tibble: 32 x 1
##      mpg
##    <dbl>
##  1  21.0
##  2  21.0
##  3  22.8
##  4  21.4
##  5  18.7
##  6  18.1
##  7  14.3
##  8  24.4
##  9  22.8
## 10  19.2
## # ... with 22 more rows
…
